module gitlab.com/noleeen/geo_courier

go 1.19

require (
	github.com/gin-gonic/gin v1.9.1
	github.com/go-redis/redis/v8 v8.11.5
	github.com/joho/godotenv v1.5.1
	github.com/stretchr/testify v1.8.4
)

require (
	github.com/Masterminds/goutils v1.1.1 // indirect
	github.com/Masterminds/semver/v3 v3.2.1 // indirect
	github.com/Masterminds/sprig/v3 v3.2.3 // indirect
	github.com/asaskevich/govalidator v0.0.0-20230301143203-a9d515a09cc2 // indirect
	github.com/bytedance/sonic v1.11.0 // indirect
	github.com/cespare/xxhash/v2 v2.1.2 // indirect
	github.com/chenzhuoyu/base64x v0.0.0-20230717121745-296ad89f973d // indirect
	github.com/chenzhuoyu/iasm v0.9.1 // indirect
	github.com/davecgh/go-spew v1.1.2-0.20180830191138-d8f796af33cc // indirect
	github.com/dgryski/go-rendezvous v0.0.0-20200823014737-9f7001d12a5f // indirect
	github.com/erikstmartin/go-testdb v0.0.0-20160219214506-8d10e4a1bae5 // indirect
	github.com/felixge/httpsnoop v1.0.4 // indirect
	github.com/fsnotify/fsnotify v1.7.0 // indirect
	github.com/gabriel-vasile/mimetype v1.4.3 // indirect
	github.com/gin-contrib/sse v0.1.0 // indirect
	github.com/go-openapi/analysis v0.22.2 // indirect
	github.com/go-openapi/errors v0.21.0 // indirect
	github.com/go-openapi/inflect v0.19.0 // indirect
	github.com/go-openapi/jsonpointer v0.20.2 // indirect
	github.com/go-openapi/jsonreference v0.20.4 // indirect
	github.com/go-openapi/loads v0.21.5 // indirect
	github.com/go-openapi/runtime v0.27.1 // indirect
	github.com/go-openapi/spec v0.20.14 // indirect
	github.com/go-openapi/strfmt v0.22.0 // indirect
	github.com/go-openapi/swag v0.22.9 // indirect
	github.com/go-openapi/validate v0.23.0 // indirect
	github.com/go-playground/locales v0.14.1 // indirect
	github.com/go-playground/universal-translator v0.18.1 // indirect
	github.com/go-playground/validator/v10 v10.18.0 // indirect
	github.com/go-swagger/go-swagger v0.30.5 // indirect
	github.com/goccy/go-json v0.10.2 // indirect
	github.com/google/go-cmp v0.6.0 // indirect
	github.com/google/uuid v1.6.0 // indirect
	github.com/gorilla/handlers v1.5.2 // indirect
	github.com/gorilla/websocket v1.5.1 // indirect
	github.com/hashicorp/hcl v1.0.0 // indirect
	github.com/huandu/xstrings v1.4.0 // indirect
	github.com/imdario/mergo v0.3.16 // indirect
	github.com/jessevdk/go-flags v1.5.0 // indirect
	github.com/josharian/intern v1.0.0 // indirect
	github.com/json-iterator/go v1.1.12 // indirect
	github.com/kellydunn/golang-geo v0.7.0 // indirect
	github.com/klauspost/cpuid/v2 v2.2.6 // indirect
	github.com/kr/pretty v0.3.1 // indirect
	github.com/kr/text v0.2.0 // indirect
	github.com/kylelemons/go-gypsy v1.0.0 // indirect
	github.com/leodido/go-urn v1.4.0 // indirect
	github.com/lib/pq v1.10.9 // indirect
	github.com/magiconair/properties v1.8.7 // indirect
	github.com/mailru/easyjson v0.7.7 // indirect
	github.com/mattn/go-isatty v0.0.20 // indirect
	github.com/mitchellh/copystructure v1.2.0 // indirect
	github.com/mitchellh/mapstructure v1.5.0 // indirect
	github.com/mitchellh/reflectwalk v1.0.2 // indirect
	github.com/modern-go/concurrent v0.0.0-20180306012644-bacd9c7ef1dd // indirect
	github.com/modern-go/reflect2 v1.0.2 // indirect
	github.com/oklog/ulid v1.3.1 // indirect
	github.com/onsi/gomega v1.31.1 // indirect
	github.com/pelletier/go-toml/v2 v2.1.1 // indirect
	github.com/pkg/errors v0.9.1 // indirect
	github.com/pmezard/go-difflib v1.0.1-0.20181226105442-5d4384ee4fb2 // indirect
	github.com/rogpeppe/go-internal v1.12.0 // indirect
	github.com/sagikazarmark/locafero v0.4.0 // indirect
	github.com/sagikazarmark/slog-shim v0.1.0 // indirect
	github.com/shopspring/decimal v1.3.1 // indirect
	github.com/sourcegraph/conc v0.3.0 // indirect
	github.com/spf13/afero v1.11.0 // indirect
	github.com/spf13/cast v1.6.0 // indirect
	github.com/spf13/jwalterweatherman v1.1.0 // indirect
	github.com/spf13/pflag v1.0.5 // indirect
	github.com/spf13/viper v1.18.2 // indirect
	github.com/stretchr/objx v0.5.0 // indirect
	github.com/subosito/gotenv v1.6.0 // indirect
	github.com/toqueteos/webbrowser v1.2.0 // indirect
	github.com/twitchyliquid64/golang-asm v0.15.1 // indirect
	github.com/ugorji/go/codec v1.2.12 // indirect
	github.com/ziutek/mymysql v1.5.4 // indirect
	go.mongodb.org/mongo-driver v1.14.0 // indirect
	go.uber.org/atomic v1.11.0 // indirect
	go.uber.org/multierr v1.11.0 // indirect
	golang.org/x/arch v0.7.0 // indirect
	golang.org/x/crypto v0.19.0 // indirect
	golang.org/x/exp v0.0.0-20240222234643-814bf88cf225 // indirect
	golang.org/x/mod v0.15.0 // indirect
	golang.org/x/net v0.21.0 // indirect
	golang.org/x/sync v0.6.0 // indirect
	golang.org/x/sys v0.17.0 // indirect
	golang.org/x/text v0.14.0 // indirect
	golang.org/x/tools v0.18.0 // indirect
	google.golang.org/protobuf v1.32.0 // indirect
	gopkg.in/ini.v1 v1.67.0 // indirect
	gopkg.in/yaml.v2 v2.4.0 // indirect
	gopkg.in/yaml.v3 v3.0.1 // indirect
)
